,carrier_id,carrier
0,1,AE EAGLE AMERICA INC
1,2,AGI LOGISTICS CORP
2,3,ALL WORLD SHIPPING CORPORATION
3,4,AMERICAN PRESIDENT LINE
4,5,AMERICAN PRESIDENT LINES
5,6,ANL CONTAINER LINE
6,7,APEX SHIPPING CO
7,8,ATE LOGISTICS CO LTD
8,9,ATLAS LINE
9,10,BBC FREIGHT LINE INC
10,11,BDP TRANSPORT LLC
11,12,BELGIAN LINE INC
12,13,BLUE ANCHOR LINE
13,14,BRILLIANT GLOBE LOGISTICS INC
14,15,CEVA OCEAN LINE
15,16,CHILEAN LINES
16,17,CHINA AIRLINES LTD (AIR CODE C
17,18,CHINA CONTAINER LINE USA INC
18,19,CHINA OCEAN SHIPPING
19,20,CHINA SHIPPING CONTAINER LINE
20,21,CHINA SHPG CONTAINER LINE
21,22,CHINA SHPG CONTAINER LINES
22,23,CIE ALGERO-LIBYENNE DE TRANSPO
23,24,CITY OCEAN LOGISTICS CO LTD
24,25,CMA-CGM
25,26,COHESION FREIGHT (HK) LIMITED
26,27,COHESION FREIGHT (HK) LTD
27,28,COLUMBUS LINE
28,29,COMPAGNIE MARITIME D'AFFRETEME
29,30,COMPANIA CHILENA DE NAVEGACION
30,31,COMPANIA LIBRA DE NAVEGACION (
31,32,DAMCO A/S
32,33,DANMAR LINES
33,34,DANMAR LINES LTD
34,35,DE WELL CONTAINER SHIPPING COR
35,36,DELTRANS INTL SHPG CORP
36,37,ECU LINE
37,38,EMPRESA DE NAVEGACAO ALIANCA
38,39,EVER LEADING INTERNATIONAL INC
39,40,EVERGREEN LINE
40,41,EXPEDITORS INTERNATIONAL OF WA
41,42,FORTUNE TRANSPORTATION CORP
42,43,HAMBURG SUD
43,44,HANJIN SHIPPING CO LTD
44,45,HANJIN SHIPPING COMPANY LTD
45,46,HAPAG LLOYD
46,47,HAPAG LLOYD LINE
47,48,HATSU MARINE LTD
48,49,HEADWIN LOGISTICS CO LTD
49,50,HECNY SHIPPING LTD
50,51,HONOUR LANE SHIPPING LTD
51,52,HYUNDAI
52,53,HYUNDAI MERCHANT MARINE
53,54,ITALIA MARITIMMA S P A
54,55,JAPAN STAR AMERICA
55,56,JHJ INTERNATIONAL TRANSPORTATI
56,57,K LINE
57,58,K LINE (KAWASAKI KISEN KAISHA)
58,59,"LINEA PENINSULAR, INC"
59,60,MAERSK LINE
60,61,MAERSK SEALAND
61,62,MARUBA S.C.A.
62,63,MATSON NAVIGATION CO INC
63,64,"MATSON NAVIGATION COMPANY, INC"
64,65,MCL-MULTI CONTAINER LINE CALIF
65,66,MEDITERRANEAN SHIPPING
66,67,MEDITERRANEAN SHIPPING COMPANY
67,68,MITSUI OSK LINE
68,69,MOL
69,70,MT
70,71,N Y K LINE
71,72,NACA LOGISTICS
72,73,NORASIA
73,74,NORDANA
74,75,NOT AVAILABLE
75,76,NYK LINE CONTAINER TRADE MANAG
76,77,ORIENT EXPRESS CONTAINER CO IN
77,78,ORIENT OVERSEAS CONTAINER LINE
78,79,ORIENT STAR TRANSPORT INTL INC
79,80,ORIENTAL AIR TRANSPORT SERVICE
80,81,ORIENTAL LOGISTICS CO LTD
81,82,ORIENTAL OVERSEAS CONTAINER LI
82,83,PACIFIC INTL LINE (PTE) LTD
83,84,PANTAINER EXPRES LINE PANALPIN
84,85,PERFECT TRANSPORTATION SYSTEMS
85,86,PHOENIX INTERNATIONAL FREIGHT 
86,87,PO SHIPPING  CO LTD (HAINAN)
87,88,PRIMARY FREIGHT SERVICES INC
88,89,PRIME SHIPPING INTERNATIONAL I
89,90,PUDONG TRANS USA INC
90,91,RISING SUN LOGISTICS CO LTD
91,92,SAFMARINE
92,93,SALEM MOTOR TRANS INC
93,94,SCHENKEROCEAN LIMITED
94,95,SEABOARD MARINE LTD
95,96,SEAGATE LOGISTICS INC
96,97,SEAMASTER LOGISTICS INC
97,98,SETH SHIPPING CORP
98,99,SHIPCO TRANSPORT INC
99,100,SINDICATO NACIONAL DE ALIJADOR
100,101,SINO CONNECTIONS LOGISTICS LTD
101,102,SINOTRANS EXPRESS INC
102,103,STAR SHIPPING
103,104,SUNNY GROUP USA INC
104,105,T S LINES
105,106,TOLL GLOBAL FORWARDING
106,107,TOPOCEAN CONSOLIDATION SERVICE
107,108,TOPWINNER TRANSPORTATION LIMIT
108,109,TRANS WAGON INTL CO LTD
109,110,TRANSLINK SHIPPING
110,111,TRUMBULL CARTAGE COMPANY
111,112,"U.S. GROUP CONSOLIDATOR, INC"
112,113,UNAVAILABLE ON BILL
113,114,UNIPAC SHIPPING INC
114,115,UNITED ARAB SHIPPING
115,116,UNIVERSAL SHIPPING INC
116,117,UPS SCS (ASIA) LTD
117,118,US UNITED LOGISTICS (NINGBO) I
118,119,VILDEN GLOBAL TRADE SOLUTIONS 
119,120,WAN HAI LINES LTD
120,121,XIAMEN SUPERCHAIN LOGISTICS DE
121,122,YANG MING LINE
122,123,YOUNG-KO TRANS CO LTD
123,124,ZIM CONTAINER
124,125,ZIM ISRAELI NAVIGATION
