,entity_id,red_list_id,main_common_name,other_common_nmaes,status,other_common_names
0,369,56496514,Manjack,,LC,Cap Prieto;Manjack
1,371,56496522,Clammy Cherry,,LC,Clammy Cherry
2,381,56497523,,,LC,
3,560,62002626,Russian Olive,,LC,Russian Olive
4,1669,20453493,Corsican Pine,,LC,Corsican Pine
5,567,62003383,,,LC,Kauvula
6,1669,20453795,Austrian Pine,,LC,Austrian Pine;Schwarzföhre;Black Pine
7,1669,20454606,,,LC,
8,637,62004694,American Beech,,LC,American Beech
9,1669,20454910,,,LC,
10,887,62005226,,,DD,
11,888,62005368,,,VU,
12,1672,19568129,Jelecote Pine,,LC,Peinador de Neblinas;Pino Lacio;Pino Triste;Pino Colorado;Mexican Weeping Pine;Spreading-leaved Pine;Jelecote Pine;Ocote;Xalocote
13,1527,62019854,Black Plum,,LC,Black Plum
14,236,30795,,,VU,
15,1438,62020997,,,LC,
16,162,62021066,Bois de rose,,LC,"Ebiara (Gabon);Tbouabe (Gabon);Bois de rose;Ebolo (Yassa, Cameroon);Houate (Gabon);Abem;Abouate (Gabon)"
17,163,62021075,,,LC,"Uzabi (Pogo, Gabon);Enana (Pahouin de Libreville, Gabon);Bôra (Gabon);Bibora (Gabon);Mpossa (Kiyumbe, Yombe; Congo Kinshasa);Souwa (Munzali, Gabon);Ebiara (Pahouin, Cameroon);Embiaga (Gabon);Esabem (Cameroon);Bôssa (Gabon);Abem;Ebiara (Cameroon);Ibota (Mitsogho, Gabon);Possa (Congo Brazzaville)"
18,164,62021125,Bois de Rose,,LC,"Ekpogoi (Nigeria);Ebiara-Minkoul des Montagnes (Gabon);Ebiara (Gabon);Gbor-ku-orh (Liberia);Ebiara (Gabouin, Gabon);Ekpagoy (Nigeria);Ebiara (Ivory Coast);Red Oak (Liberia);Ebiara-Minkoul (Gabon);Ebiara a petites feuilees (Gabon);Bois de Rose;Mende (Sakpei, Sierra Leone)"
19,165,62021182,Bois de Rose,,LC,"Kosau (Ivory Coast);Libundukulu-li-lowe (Turumba, Congo Kinshasa);Doka-Rafi (Nigeria);Ebolo (Nigeria);Falmei (Dj, Niger);Ko-Sio (Bamb, Mali);Okoro (Sobo, Nigeria);Obuba (Nigeria);Apado (Yoruba, Nigeria);Kpendei-guli (Mende, Sierra Leone);Mélegba (Ivory Coast);Ka-Kontha (Temne, Sierra Leone);Bois de Rose;Ko-Sau (Guinea (Conakry);Kedam Oboba (Nigeria);Abem (Yaoundé, Cameroon);Kam-booro (Central African republic)"
20,1603,30926,Patagonian Cypress,,EN,Patagonian Cypress;Lahuen;Alerce
21,1221,30953,Arkansas Oak,,VU,Arkansas Oak
22,1672,19555755,Pino,,LC,Pino Colorado;Pino
23,275,31296,Plomillo,,VU,Almendrillo;Ají;Cagüí;Ajo;Ajillo;Almendrón;Manú;Plomillo
24,627,31316,Borneo Ironwood,,VU,Borneo Ironwood;Tebelian;Billian;Tulian;Bois De Fer;Tambulian;Ulin;Im Muk;Bi;Sakian;Belian;Onglen;Bilian
25,8,158379,,,LC,Sunt;Qarad
26,528,62024955,Cumaru,,DD,Sarrapia;Tonka;Shihuahuaco;Cumaru
27,1644,30313,Serbian Spruce,,EN,Omorika;Serbian Spruce;Pančićeva omorika;Muljika
28,1614,30318,Sandarac,,LC,Sandarac Gum Tree;Thuya de Barbarie;Sandarac;Bois de citre;Alerce;Gharghar
29,1393,30337,Madeira Mountain Ash,,CR,Madeiran White Beam;Sorveira;Madeira Mountain Ash
30,1050,30372,Acebuche,,LR/nt,Oliveira Brava;Acebuche
31,1599,30375,Monterey Cypress,,VU,Ciprés Monterrey;Monterey Cypress;Ciprés de California
32,975,30441,,,CR,Zingana;Zebrano
33,1423,30595,,,DD,Ossol;Ahoke;Nom-ouie
34,395,30599,Fine-leaf Wadara,,VU,Cachimbo;Tauari;Fine-leaf Wadara;Coco Cabuyo;Coatari;Cachimbo Caspi;Capa De Tabaco;Irimariye;Copo Hediondo;Tauary;Wadara
35,209,30624,Milk Tree,,VU,Palo De Vaca;Sande;Baco;Cow Tree;Milk Tree;Mastate
36,830,30700,,,EN,
37,702,30847,Guayacan,,VU,Guayacan
38,1604,31083,,,VU,
39,1604,31084,,,EN,
40,1226,31294,,,LR/lc,
41,1610,31305,Oriental Arbor-vitae,,NT,Ce Bai Ye;Bai Zi Ren;Oriental Arbor-vitae
42,1123,31312,Nandu Wood,,VU,Nedun Tree;Kayu Besi Papus;Kayu Laut;Kayu Kuku;Makapilit;Merbau Laut;Nandu Wood;Nani Laut
43,766,31314,,,VU,Gagil;Meranti Bunga;Ta Khian Keao;Merawan Siput;Merawan
44,76,31318,Hard Milkwood,,LR/lc,Ka Bui;Lame Bodas;Pulai Gabus;Pulai Basong;Pulai Paya;Sia;Pulai Lilin;Teenpet Phru;Thia;Siamese Balsa;Hard Milkwood
45,1486,31332,Red Cedar,,LR/lc,Chinese mahogany;Danupra;kukoru;Suren kapar;Red Cedar;Hong Chun;Limpaga
46,38,31349,,,EN,
47,1129,31350,,,DD,
48,1585,31355,Monkey Puzzle,,EN,Pehuén;Pino Araucana;Monkey Puzzle;Pino Chileno;Piñonero;Araucaria;Gúillo
49,945,31380,,,VU,Manga Poli;Pahahutan;Pahong-damulag;Banitan;Bunutan;Pahohotan;Pahutan;Malipajo;Paho;Malapaho;Pahotan;Appan
50,948,31389,Mango,,DD,Mango;Mangga Hutan;Mangga
51,947,31392,Horse Mango,,LR/lc,Ma Muang Paa;Horse Mango;Machang;Mangga Limus Tipung;Ma Mut;Raa Wo
52,1084,31430,White Seraya,,EN,Meranti Pasir;Selangan Batu;Balau;Tengkawang Jantong;White Seraya;Gerutu Pasir
53,1327,31433,Red Balau,,CR,Selangan Batu;Red Balau;Balau
54,1376,31437,,,EN,Selangan Batu;Balau
55,772,31555,,,VU,
56,781,31557,,,LR/nt,Penarahan
57,1007,31562,,,LR/nt,Penarahan
58,763,31762,,,CR,Gagil;Merawan
59,764,31763,,,CR,Giam
60,1077,31796,,,LC,Nyatoh Gunong
61,1103,31797,,,LR/lc,Nyatoh;Mayang taban;Nyatoh paya;Sawoh;Getah sundik;Nyatoh tembaga;Sundik burong;Mayang mentua nyatoh
62,1361,31833,Red Balau,,CR,Selangan Batu;Red Balau;Balau
63,1278,31852,Sandalwood,,VU,Sandalwood;Tan Xiang;Cendana
64,1568,31861,West Indian Satinwood,,VU,Aceitillo;Noyer;Espinillo;Yellow Sanders;West Indian Satinwood;Bois Noyer;Yellow-head;Yellowheart
65,1326,31914,,,EN,Balau
66,1378,31929,,,CR,Balau
67,1332,31969,White Meranti,,CR,White Meranti
68,1335,31970,,,VU,Selangan Batu;Balau;Balau Bukit
69,1349,31971,White Meranti,,CR,White Meranti;Tenam
70,1357,31972,,,CR,Selangan Batu;Balau
71,1299,32017,Red Quebracho,,LR/lc,Quebracho Colorado;Red Quebracho;Quebracho Colorado Chaqueño;Quebracho Colorado Santafesino;Cocobalo
72,137,32020,Urundei-mé,,DD,Aroeire;Arendeúva;Orindeúva;Aroeira;Aroeira Legitima;Goncalo Alves;Aroeira Do Sertao;Aroeira Do Campo;Arveira;Areoeira Petra;Urundeúva;Arindeúva;Urundel;Aroeira Da Serra;Urundei-mé
73,1301,32022,Red Quebracho,,LR/lc,Quebracho Colorado;Red Quebracho;Quebracho Macho;Coronillo
74,128,32023,Peroba Açú,,EN,Carretto;Peroba Paulista;Peroba Rajada;Peroba De Sao Paulo;Peroba Amargosa;Sobro;Amargoroso;Peroba Amarela;Peroba Açú;Peroba Mirim;Peroba Rosa;Peroba;Ib
75,228,32026,Guayacaú Negro,,VU,Guayacaú Negro;Guayacáu Negro;Ibirá-berá;Guayacáu
76,819,32027,Jacaranda,,VU,Jacaranda;Tarco
77,216,32028,,,LC,Palo Santo
78,1125,32036,Lingue,,LR/nt,Lingue
79,1609,32052,Guaitecas Cypress,,VU,Guaitecas Cypress;Ciprés de las Guaitecas
80,112,32056,Lign-aloes,,VU,Calambac;Agarwood;Kritsanaa;Eaglewood;Gaharu;Aloewood;Mai Hom;Karas;Depu;Lign-aloes
81,828,32078,Cedro Grande,,EN,Nogal;Cedro Negro;Cedro Grande;Tocte
82,440,32098,Indonesian Rosewood,,VU,Indian Rosewood;Bombay Blackwood;Sonosungu;Sonobrits;Indonesian Rosewood;Sonokeling;Palisandre De L'Inde;Sisham;Trac;Beete;Malabar Rosewood
83,1197,32104,Red Sandalwood,,EN,Almug;Saunderswood;Algum;Red Sandalwood
84,1561,32119,,,LR/lc,Lanete
85,1485,32122,Philippine Cedar,,DD,Philippine Cedar;Kalantas
86,1602,32131,Himalayan Cypress,,LC,Hoàng Dàn;Gubraî;Himalayan Cypress;Gulla;xi zang bai mu
87,840,32171,Dry Zone Mahogany,,VU,Ogwango;Ono;Akuk;Oganwo;Diala-iri;Dry Zone Mahogany;Madachi;Benin Mahogany;Bandoro;Senegal Mahogany;African Mahogany;Eri Kirée
88,837,32172,Large-leaved Mahogany,,VU,Ogwango;Krumben;Kruba;Akuk;Diala-iri;Large-leaved Mahogany;Acajou;Ahafo;Benin Mahogany;Senegal Mahogany;African Mahogany
89,1022,32173,,,VU,Naouya;Owoé;Otutu;Epro;Òr;Akumaba;Danta;Òpepe-ira;Kondofindo;Arborbora;Abumana;Kotibé;Katibé
90,1491,32174,,,LR/lc,Arere;Wawa;Samba;Ayous;Obeche;Abachi
91,422,32182,,,VU,Igaganga
92,457,32184,,,LR/nt,Lonlaviol
93,838,32234,African Mahogany,,VU,Ogwango;Lagos Mahogany;Ono;Munyama;Dubini;Dukuma Fufu;African Mahogany;Acajou D'Afrique
94,836,32235,African Mahogany,,VU,Ogwango;Krumben;Munyama;Acajou Blanc;Mbamba;Dubini;Dukuma Fufu;White Mahogany;Acajou D'Afrique;African Mahogany;Anthotheca
95,576,32236,,,VU,Mufumbi;Efuodwe;Utile;Okeong;Sipo;Assié;Kosi-kosi;Ijebu;Efoobrodedwo
96,959,32283,,,EN,Bété;Oprono;Mansonia
97,235,32285,,,LR/lc,Bintangor Kuning;Cong Vay Oc;Tanghon
98,79,32291,Umburana Do Cheiro,,EN,Cumaré;Roble Del Pais;Umburana Do Cheiro;Ishpingo;Roble Salteño;Amburana;Cumarú;Cerejeira;Palo Trébol
99,307,32292,Spanish Cedar,,VU,Cedrat;Atoreb;Ceder;Cedrela;Cedro Rojo;Red Cedar;Spanish Cedar;Akuyari;Acajou-bois;Acajou Rouge;Cigar-box Wood;Koperi
100,1417,32293,Big Leaf Mahogany,,VU,Honduras Mahogany;Bigleaf Mahogany;Brazilian Mahogany;Cedroi;Large-leaved Mahogany;Mahogani Grands Feuilles;Acajou;Águano;Cedroaraná;Mogno;Mara;Big-leaf Mahogany;Caoba;Big Leaf Mahogany;Araputangá
101,75,32295,White Cheesewood,,LR/lc,Milkwood Pine;Pulai Itam;Sath Taba;Teenpet Khaao;Tin Pet;Tin Pet Dam;Lame Putih;White Cheesewood;Blackboard Tree;Waser;Mo Cua;Pule;Tin Pet Khao;Puulaa Puu Teh;Sat Thba;Satba;Cay Sua;Geceh;Ruith;Sataban;Pulai Lilin;Dita
102,496,32296,Indian Ebony,,DD,Indian Ebony
103,765,32305,,,VU,Khaen Huea;Koki Msao;Takien;Chue Ngaa;Cengal Pasir;Merawan;Gagil;Ta Khian Thong;Sao Den
104,447,32306,,,EN,Cam Lai
105,807,32310,Moluccan Ironwood,,VU,Lumpaw;U'ula;Ifi-lele;Ajar;Vesi;Ifil;Borneo Teak;Moluccan Ironwood;Go Nuoc;Kwila;Merbau Ipil;Merbau Asam
106,1018,32314,,,EN,Chengal;Takhian chan te maeo
107,327,32332,Katsura Tree,,LR/nt,Katsura Tree;Lianxiangshu
108,1602,32336,,,VU,Ju Bai
109,925,32360,,,VU,Sen Mat;Zijingmu;Sen
110,1321,32373,White Meranti,,CR,White Meranti;Yunnan Shaluoshuang
111,1473,32376,,,LR/lc,Sishumu;Thitpok;Bolang Itan;Bindung;Tung;Binung;Winong
112,490,32399,,,LR/nt,Longyan
113,525,32400,,,EN,Keruing Gunung;Yang Dong;Keruing;Nyang dong;Cho Nau;Chheuteal Preng;Yingjiang Longnaoxiang
114,12,32480,,,VU,
115,971,32486,,,VU,Louro-itaúba;Itaúba-preta;Itaúba-grande;Itaúba;Itaúba-amarela
116,1043,32489,Cedre gris,,LR/lc,Canela-sebo;Canela-de-corvo;Kereti;Pisi;Canela-parda;Moena;Cedre gris
117,1682,32499,Pinabete,,EN,Pinabete;Ocote;Pino Blanco;K’uk toj
118,444,32504,African Blackwood,,LR/nt,Mukelete;Babanus;Mozambique Ebony;Mufunjo;Grenadilla;African Blackwood;Mugembe;Mpingo
119,760,32506,,,EN,Giam;Krabok kang;Lintah Bukit;Koki Daek
120,1601,32518,Mediterranean Cypress,,LC,Italian Cypress;Mediterranean Cypress;سرو
121,1418,32519,Small-leaved Mahogany,,EN,Madeira;Mahogani De Saint-dominique;Caoba Espanõla;Mahok;Acajou;Cuban Mahogany;Mahoni;West Indian Mahogany;Small-leaved Mahogany;Mahogani Petites Feuilles;American Mahogany;Coabilla
122,1665,32624,Merkus's Pine,,VU,Uyam;Tusam;Damar Bunga;Damar Batu;Merkus's Pine;Mindoro Pine;Sumatran Pine;Tapulau
123,429,32625,Siamese Rosewood,,VU,Rose Wood;Payung;Thailand Rosewood;Siamese Rosewood;Kha Nhoung;Kra nhoung;Trac;Chin Chan;Tracwood
124,345,32651,Chittagong wood,,LR/lc,Yinma;Chickrassy;Lal-devdar;Chittagong wood;Maleiveppu;Chuvannakil;Dalmara
125,195,32712,,,VU,Okwen
126,1387,32809,,,VU,Manapo;Supa;Baloyong
127,35,32811,,,EN,Tê Kha;Makha-hua-kham;Go Do;Kha;Beng;Makha-luang;Ma Khaa Mong;Go Ca Te
128,465,32820,Velvet Tamarind,,LR/nt,Kayi;Velvet Tamarind;Khleng;Krâlanh Lomië;Xoay;Nhoi;Xay;Kheng;I-dang;Keranji Kertas Kechil
129,1588,32835,Hoop Pine,,LC,Pien;Moreton Bay Pine;Hoop Pine;Dorrigo Pine;Iyo;Ningwik;Richmond River Pine;Colonial Pine;Alloa
130,1589,32836,Klinki Pine,,NT,Klinki Pine
131,1279,32842,,,LR/lc,Hilaka;Kedondong
132,802,32864,,,VU,
133,1558,32874,,,VU,
134,813,32906,,,VU,Mbarika
135,728,32926,,,VU,Larmé;Akoriko;Idewa
136,693,32941,,,VU,Lanutan-bagio;Guru Buaja;Ramin Melawis;Merang;Ramin Telur;Melawis;Gaharu Buaya
137,1416,32954,Pacific Coast Mahogany,,VU,Gateado;Honduras Mahogany;Zopilote;Mexican Mahogany;Caoba De Honduras;Zapatón;Caoba;Pacific Coast Mahogany;Caoba De Pacifico;Cóbano;Venadillo;Coabilla
138,704,32955,Holywood Lignum Vitae,,NT,Guayacán;Holywood Lignum Vitae;Guayacán Real
139,988,32956,Black Manwood,,LR/nt,Cari-cuara Negra;Huacapú;Acariguara;Arekuma;Guayacán Pechiche;Manú Negro;Ki;Minche;Guayacán Negro;Punte Candado;Wamania;Manú;Black Manwood
140,449,32957,Cocobolo,,VU,Nambar;Funera;Palo Negro;Cocobolo;Granadillo;Cocobolo Prieto
141,1584,32975,Parana Pine,,CR,Pino Blanco;Pinheiro-preto;Pinheiro do Paraná;Pinho Brasileiro;Parana Pine;Paraná-pine;Pinheiro das Missoes;Curiúva;Pino de Missiones;Pinheiro-da-ponta-br Anca;Curii;Pinheiro-elegante;Candelabra Tree
142,1202,32977,Tipa Colorado,,LR/nt,Madeira Nova;Amendoim Bravo;Ibiráro;Palo Coca;Ibiraró;Pau Fava;Tipa Colorada;Tipa Colorado;Viraró;Guiraró;Cocal;Viraro
143,1042,32978,,,VU,Canela;Imbuía Zebrina;Imbuía Clara;Imbuía Amarela;Imbuía Preta;Imbuía Parda;Imbuia;Imbuía Rajada;Canela Imbuía Escura;Canela Imbí Vermelha
144,911,32980,Jacarandá-do-cerrado,,VU,Jacarandá-paulista;Jacarandá-do-cerrado;Jacarandá-pardo;Jacarandá-pedra
145,446,32985,Brazilian Rosewood,,VU,Cabiuna;Palissandre Du Bresil;Bahia Rosewood;Jacarandá De Brasil;Rio Rosewood;Brazilian Rosewood
146,166,32986,Brazil-nut Tree,,VU,Brazilnoot;Juvia;Yubia;Turury;Brazil-nut Tree;Castanha Verdadeira;Castanha Para;Castaña Del Marañón;Castanheiro;Touca;Para Nut;Noix Du Brésil
147,150,32987,Guatambu Blanco,,EN,Pau Marfim;Guamixinga;Guatambu Blanco;Pequia;Marfim;Pau Liso;Farinha Seca;Pau Cetim;Guataia;Guatambu;Pequia Mamona;Guarataia
148,93,33005,,,VU,Mersawa;Krabak
149,96,33006,,,EN,Mersawa
150,516,33007,,,VU,Chheuteal Teuk;Yaang Naa;Gurjun;Dau nuoc;Gurjan;Day rai;Yang khao
151,518,33008,,,VU,Yaang Khon;Keruing;Keruing bulu
152,522,33012,,,EN,Keruing Belimbing;Apiton;Keruing;Meluit;Apitong;Gurjun;Yuung;Keruing Pekat
153,523,33013,,,EN,Keruing Gondol;Keruing;Gurjun;Gurjan;Apitong
154,1370,33028,White Meranti,,VU,White Meranti;Pha Yom;Khanyom
155,29,33032,Afzelia,,VU,Papao;Kawo;Lenguè;Afzelia;Apa;Akpalata;Savanna Doussié;Arinyan
156,31,33033,,,VU,Ayan-olutoko;Doussié;Aja;Odo Niyan;Red Doussié;Doussie
157,32,33034,White Afzelia,,VU,Apa Igbo;White Doussié;Orodo;White Afzelia
158,43,33035,Albizia,,VU,Uwowe;Sifou;Latandza;Albizia;Awiemfo Samina;Ayinre-ogo;Ngu
159,102,33036,,,VU,Kokote;Bodioa;Kokoti;Noudougou;Otutu
160,107,33037,Antrocaryon,,VU,Antrocaryon;Aprokuma;Ifa Okete;Akoua;Bougongi
161,140,33038,,,CR,Elanzok;Kabulungu;Elang;Mukulungu;Uku
162,146,33039,African Pearwood,,VU,African Pearwood;Moabi;Adza;Djave Nut;Njabi;Dimpampi
163,367,33041,,,VU,Copaifera;Entedua;Bubinga
164,379,33042,West African Cordia,,LR/lc,Mkibu;Ebé;Drum Tree;Mzingatti;Ebe;Pooli;West African Cordia;Tweneboa;Ketumba;Akaboa;Omo;Kyenduru
165,380,33043,West African Cordia,,VU,Ebé;Pooli;West African Cordia;Akaboa;Omo;Tweneboabere
166,494,33048,Ebony,,EN,Ebony;Ebene
167,572,33049,,,VU,Tiama;Zougou Bari;Kulungi;Ziziezara;Mukusu;Koupri;Lokoa Popo;Edinam;Muyovu;Kikura;Gedunohor;Cedar
168,573,33050,Cedar Kokoti,,VU,Omu;Cedar Kokoti;Kosipo;Penkwa-akoa
169,575,33051,Sapele,,VU,Sapele;Aboudikrou;Ogiekpogo;Libuyu;Owura;Penkwa;Sapelli;Ubilesan;Muyovu;Ijebu
170,696,33052,,,EN,Emongi;Tola;Tola Branca;Tola Blanc;Achi;Egba;N'tola;Agba
171,715,33053,Black Hyedua,,LC,Amazoué;Ovangkol;Ehie;Ovengkol;Anokye-hyedua;Guibourtia;Amazakoué;Black Hyedua;Anokye;Ovankol
172,809,33055,,,LR/nt,Mueba;Meba;Dika;Oro;Wanini;Bobo;Andok;Oba;Boboru;Abesebuo
173,893,33056,Azobe,,VU,Azobé;Bakundu;Azobe;Kaku;Endwi;Ekki;Aba;Esore;Bongossi
174,906,33057,African Walnut,,VU,Sida;Dibetou ou noyer d’Afrique;African Walnut;Dibétou;Mpengwa;Congowood;Anamemila;Bibolo;Tigerwood;Apopo;Bombulu;Dibetou;Dubinibiri
175,1014,33058,,,VU,Kilingi;N'gulu-maza;Bilinga;Akondoc;Badi;Opepe;Kusia
176,1208,33059,,,VU,Kyereyebere;Akodiakédé;Efok;Koto
177,1210,33060,,,VU,Oporoporo;Kyereye;Koto
178,180,33061,,,LC,Ndina;Awong;Akite;Dina;Asomanini;Pau Rosa;Kiela Kusu;Oken;Pao Rosa
179,1457,33062,Black Afara,,VU,Idigbo;Framire;Emeri;Framiré;Black Afara;Emire;Emiré
180,1478,33063,Cherry Mahogany,,EN,Cherry Mahogany;Makore;Bacu;Baku;Aghanokwe;Douka
181,1495,33064,,,VU,Avodiré;Apapaye;Blimah-pu;Lusamba;Avodire;Apaya
182,94,33065,,,VU,Krabak;Mersawa;Mersawa Durian
183,95,33066,,,EN,Mersawa;Krabak
184,390,33068,,,EN,
185,391,33069,,,VU,Resak;Khiam;Resak Bukit
186,392,33070,,,EN,Resak
187,521,33073,,,CR,Keruing
188,524,33077,,,CR,Keruing
189,526,33080,,,CR,
190,538,33081,,,EN,
191,755,33082,,,VU,Gagil;Selangan Penak;Merawan
192,97,33084,,,CR,Palosapis
193,754,33087,,,CR,Manggachapui
194,1087,33097,White Seraya,,CR,White Seraya;Bagtikan;White Lauan;Urat Mata
195,1085,33098,White Meranti,,CR,White Meranti;Damar Pepening;Balau;Kayu Intap
196,1320,33099,Light Red Meranti,,EN,Alan Bunga;Alan;Alan Batu;Light Red Meranti
197,1321,33101,,,CR,
198,1321,33102,,,CR,
199,1323,33103,Red Balau,,CR,Red Balau;Yakal;Kayu Kawi
200,1324,33104,Yellow Meranti,,EN,White Meranti;Yellow Meranti
201,1325,33105,White Meranti,,EN,White Meranti;Meranti Pa'ang;Saya Nual
202,1328,33108,White Lauan,,CR,White Lauan
203,1321,33110,White Meranti,,CR,White Meranti;Manggasinoro
204,1331,33111,,,EN,Light Red Meranti
205,1337,33113,,,EN,Selangan Batu;Damar laut daun besar;Aek;Balau
206,1338,33114,Red Balau,,VU,Ning;Teng tani;Guiso;Selangan Batu Merah;Red Balau;Kamlaeng;Guijo;Chai bo bo;dfgadfg
207,1340,33115,,,CR,
208,1341,33116,Yellow Meranti,,CR,Pakit;Yellow Meranti
209,1342,33117,White Meranti,,EN,White Meranti;Phanong;Ven Ven Bop;Meranti Temak;Koki Pnong
210,1344,33119,Light Red Meranti,,CR,Light Red Meranti
211,1346,33120,Red Balau,,CR,Red Balau;Selangan Batu Merah
212,1348,33121,,,VU,Selangan Batu;Kumus;Balau;Kayu Masang;Selangan Batu Kumus;Teng Khuan
213,1350,33122,Light Red Meranti,,CR,Light Red Meranti
214,1351,33123,Light Red Meranti,,NT,Meranti Tembaga;Light Red Meranti;Saya Daeng;Kayu Pengerawan Lampung;Meranti
215,1356,33125,Light Red Meranti,,CR,Kawang;Melantai;Light Red Meranti
216,1356,33126,,,EN,Kawang;Melantai
217,1358,33127,,,EN,Selangan Batu;Balau
218,1359,33128,Yellow Meranti,,LR/lc,Lun Jantan;Banjutan;Damar Hitam;Yellow Meranti
219,1364,33132,Light Red Meranti,,EN,White Lauan;Light Red Meranti
220,1364,33133,,,EN,
221,1365,33134,Dark Red Meranti,,EN,Nemesu;Red Lauan;Dark Red Meranti
222,1367,33136,Dark Red Meranti,,EN,Dark Red Meranti
223,1372,33137,,,CR,Yakal;Kayu Kerintak;Balau
224,1374,33138,Light Red Meranti,,CR,Light Red Meranti
225,1360,33144,Red Lauan,,CR,Red Lauan
226,1356,33147,,,CR,Kawang;Melantai
227,1510,33148,,,EN,Upun Batu;Penyau
228,1512,33152,,,LR/lc,Narig
229,1083,33159,,,CR,Balau
230,538,33160,,,EN,Kapur
231,757,33161,,,EN,Giam Malut;Takhian Hin;Sang dao;Khaen Hin;Giam;Sang da;Koki Thmo
232,1356,33162,,,EN,Kawang;Melantai
233,536,33163,,,EN,
234,537,33164,,,EN,Kapur
235,92,33166,,,EN,Phdeak Rom;Palosapis;Baak;Ven Ven;Mersawa;Kra Baak
236,70,33175,,,LR/lc,Pulai Penipu Bukit;Pulai Penipu Paya;Pulai Pipit
237,252,33182,,,LR/lc,Deluwak;Kawangan;Mardundung;Kedondong Gergaji;Jelemu Nanking;Kedondong Bulan;Kenari;Damar Kahingai;Kedondong Puteh;Kedondong;Ki Kanari
238,1470,33183,,,VU,Gola;Ekop;Tetra;Sikon
239,976,33184,Zebrawood,,VU,Zingana;Zebrano;Allen Élé;Zebrawood
240,238,33186,,,VU,Miama
241,477,33187,,,LR/nt,Broutou;Bondu
242,145,33188,Zambesi Redwood,,LR/nt,Mukushi;Umgusi;Zambesi Redwood;Rhodesian-teak
243,1477,33189,,,EN,Ukola;Douka;Makore
244,1189,33190,Bleedwood Tree,,LR/nt,Mutete;Mukwa;Kajat;Kiaat;Mtumbati;Bleedwood Tree;Muninga
245,1122,33191,African Teak,,EN,African Teak;Assamela;Ayin;Afromosia;Afrormosia;Kokrodua;Awawai
246,34,33192,,,VU,Kupang;Tarum;Balayong;Tindalo;Tanduk
247,74,33194,,,LR/lc,Champek Phnom;Tampahin;Teen Thian;Pulai Daun Besar;Sayongan;Cây So Tua;Thungfa;Katung Fa;Kra Thungfa Hai;Tung Fa;Batino;CÃ¢y So Tua;Cayacayao;Pulai Penipu Bukit
248,232,33196,Alexandrian Laurel,,LR/lc,Fetau;Poenago;Njamplung;Segeju;Punnai;Foraha;Ponnyet;Naowakan;Alexandrian Laurel;Bintangor Laut;Kra Thing;Penaga Laut;Takamaka;Beach Calophyllum;Camplong;Borneo Mahogany;Caymun;Ndilo;Bangkalan;Damba;Kating;Dingkaran;Digo;Bitaog;Palo Maria;Saraphee Naen
249,255,33197,,,VU,
250,382,33199,,,LR/lc,Balu;Kanava;Purnamasada;Kenal Laut
251,407,33200,,,LR/lc,Kayu Temau;Geronggang;Serungan;Lede
252,416,33201,,,VU,Dila-dila;Kekatong
253,485,33202,,,VU,Katmon
254,493,33203,Indonesian Ebony,,VU,Macassar Ebony;Kayu Besi;Indonesian Ebony;Sulawesi Ebony;Tomburushu;Belimbing/kayu;Kayu Raja
255,751,33206,,,LR/lc,Hia;Arangga;Glingsem
256,846,33208,,,LC,Tualang;Manggis;Mengaris
257,847,33209,,,LC,Kayu Menggeris;Impas;Tenggris;Kempas
258,903,33211,,,LR/lc,Terupuk Talang;Perupuk Unung;Bau Langit;Medang Assam;Keruie;Samet-thung;Deemee;Ba Khia;Perupok;Nasi-nasi
259,550,33212,,,LR/lc,Teen Pet Daeng;Jelutong
260,139,33213,,,VU,Okumé;Okoume;Moukoumi;N'koumi;Angouma;Gaboon;Okoumé
261,324,33214,,,VU,Mtambaa;MTAMBARA;Mtambao;Mtambara
262,1468,33215,,,EN,Izombé;Akewe;Izombe;Aké
263,1617,33216,Mulanje Cedar,,CR,Mulanje Cedar;Mulanje Cedarwood;Mulanje Cypress;Mkungusa
264,1607,33217,African Pencil Cedar,,LC,East African Cedar;African Pencil Cedar;Arar;African Juniper;Tedh;Mtarakwa;Tarawet;Mwangati;Ol Tarakwa
265,1254,33218,,,VU,Alone;Buma;Kondroti;Onyinakoben;Bombax
266,984,33219,,,EN,Wenge
267,695,33226,,,VU,Busilak;Anauan;Jambu Bol Hutan;Garu Campaka;Lanutan-baguio;Garu Kapas;Pinang Bai;Nunura;Kelembak;Ainunura
268,811,33227,,,LR/lc,Kayu Bulu;Ko Nia;Kayu Batu;Pauh Kijang;Kra Bok
269,1008,33229,,,LR/lc,Penarahan
270,918,33235,,,VU,Betis;Sulewe;Puntik;Manilag;Lotoo Tulu;Banitis
271,1002,33236,,,LR/lc,Penarahan
272,1005,33237,,,LR/lc,Pala Hutan;Penarahan
273,1039,33238,,,DD,Petaling
274,1046,33239,,,LR/lc,Benoa;Kayu Benuang Kunit;Tinamp;Binuang Bini
275,1192,33241,Burmese Rosewood,,VU,Narra;Anawim;Sonokembang;Lingua;Red Sandalwood;Amboyna Wood;Sena;Padauk;Angsana;Santal Rouge;Burmese Rosewood;Pradu
276,1386,33242,,,LR/lc,Krâkâh;Makha-yum;Gu Mat;Thai You Nan;Go Mat;Makha-tae;Têtê Hoho;Makha-nam;Sepetir Mempelas
277,551,33243,,,VU,Jelutong
278,424,33247,Burmese Rosewood,,EN,Burmese Rosewood;Cam Lai
279,432,33248,Burma Blackwood,,EN,Burma Blackwood;Yindaik
280,1292,33255,Malva Nut,,LR/lc,Luoi Uoi;Kembang Semangkok Jatong;Chorng Ban;Berempayang;Kepayang;Phungthalai;Samrong;Malva Nut;Merpayang;Kembang Semangkok Batu
281,1384,33259,,,VU,Uku Aka;Samparantu
282,332,33260,East Indian Satinwood,,VU,East Indian Satinwood
283,1190,33261,East Indian Mahogany,,DD,Narra;Vermillion;East Indian Mahogany;Andaman Redwood;Andaman Padauk
284,1021,33266,,,LC,Bulung Uso;Rambut;Rambutan
285,1460,33273,,,VU,Sakat
286,1334,33275,Yellow Meranti,,EN,Damar Siput;Ka Lo;Yellow Meranti
287,1006,33279,,,LR/nt,Penarahan
288,759,33328,,,VU,Dalingdingan;Manggachapui
289,1076,33335,,,VU,Dalakan;Nyatoh;Malak-malak;Manogtalisai
290,481,33336,,,VU,Malakatmon
291,1277,33337,,,VU,Malasantol
292,1531,33339,,,VU,Molave;Molavo
293,512,33344,,,DD,Balobo
294,253,33352,,,VU,Pili-pili;Piling-liitan;Belis;Malapili
295,408,33354,,,LR/lc,Tiou-tiou 'Som-som;Kemutul;Entemu;Salinggogon;Derum;Kasat Baku;Marangguub;Pohon Simperem;Mulun;Mangogong;Pelawan;Geronggang Biabas
296,768,33396,,,CR,Giam
297,1086,33401,White Seraya,,CR,White Seraya;White Lauan
298,1319,33402,Yellow Meranti,,CR,Yellow Meranti
299,1353,33422,,,CR,Balau
300,1355,33424,,,CR,
301,1371,33433,Dark Red Meranti,,CR,Dark Red Meranti
302,1330,33463,Dark Red Meranti,,LR/lc,Seraya;Dark Red Meranti;Saya Daeng;Saraya Daeng
303,187,33474,,,LR/nt,Muhugwe;Muhugu;Muhuhu;Mvumo;Magogo;Mschenze;Avud Mubuubu;Watho;Kipungungu
304,1373,33480,Dark Red Meranti,,VU,Mak on;Meranti Merah;Dark Red Meranti
305,1377,33481,,,EN,Selangan Batu;Balau
306,1363,33484,Dark Red Meranti,,EN,Dark Red Meranti
307,1340,33487,,,CR,
308,774,33524,,,LR/lc,Penarahan;Kelapaciung;Nior-nioran
309,1678,33553,Guadalupe Island Pine,,VU,Cedros Island Pine;Guadalupe Island Pine;Radiata Pine;Insignis Pine;Pino Insigne
310,1176,33631,Red Stinkwood,,VU,Red Stinkwood;Iluo;Tenduet;Ntasesa;Kirah;Wotangue;Vla;Mseneo;Yazangomaelimnyama;Alumty;Mkomohoyo;African Almond;Mueri;African Cherry
311,1368,33695,Light Red Meranti,,EN,Pangrawan;Kayu Tengkawang Tikus;Light Red Meranti
312,1336,33700,Yellow Meranti,,CR,Yellow Meranti;Pakit Kunyit
313,703,33701,Commoner Lignum Vitae,,EN,Gaizc Franc;Gaiac;Gaiac Mâle;Guaiac Tree;Commoner Lignum Vitae;Kaeo Chaochom;Guayacán;Palo De Vida;Palo Santo
314,636,33709,,,NT,Mbuambua;Buabua
315,554,33719,,,LR/lc,Gofu
316,777,33724,,,LR/lc,Penarahan;Mempaung
317,623,33901,Roble de Chile,,LR/nt,Roble de Chile
318,733,33902,,,LR/lc,Leche Perra;Inaré;Feguó;Kabákrá;Ombatapo;Choybá;Berbá;Mâo-de-gato;Muiratinga;Aimpem;Sukune;Basri Letri
319,982,33903,,,LR/nt,Odum;Mereira;Iroko;Kambala;Odoum;Rokko;Oroko;Abang;Mandji;Semli;Mvule
320,983,33905,,,VU,Odum;Odum-nua;Iroko;Mereira;Kambala;Odoum;Rokko;Oroko;Abang;Mandji;Semli;Mvule
321,197,33911,Bomanga,,LC,Bomanga;Léké
322,1555,33918,,,CR,Huacapú;Acupu;Wacapou;Anelim-da Folha-larga;Sarabebeballi;Briunhart;Sara;Acapú
323,1318,33921,Light Red Meranti,,CR,Red Lauan;Dark Red Meranti;Light Red Meranti
324,1640,33922,Mexican Spruce,,EN,Mexican Spruce
325,306,33928,Cedro Misionero,,EN,Cedro Rosdao;Cedro;Iaporaissib;Misionero;Basálkina;Cedro-branco;Acaju-catinga;Cedro Vermelho;Cedro Misionero;Cedro Branco;Cedro-vermelho;Cedro Batata;Cedro-da-várzea;Cedro Colorado;Cedro Diamantina;Cedro-batata;Cedro Rosado;Cedro Blanco
326,783,33947,,,LR/lc,Penarahan
327,843,33948,,,LR/lc,Penarahan
328,1140,33951,Oriental Plane-tree,,DD,Platanos;Oriental Plane-tree;Chenar
329,1172,33954,Algarroba Chico,,DD,Algarroba Chico;Yura-tacu;Algarrobo Chico;Ibopé-hú;Algarrobo Negro
330,425,33955,,,VU,Palissandre Voamboana;Hazovola;Hitsika;Sovoka;Tsiandalana;Voamboana
331,1525,33959,Baboonwood,,EN,Cuajo;Virola;Cumala;Cumala Blanca;Dalli;Ucuuba-cheirosa;Ucuúba-branca;Ucuúba;Baboen;Yayamadou;Chalviande;Baboonwood
332,264,33961,Colombian Mahogany,,LR/nt,Jequitiva;Bacu;Abarco;Jequitibá;Colombian Mahogany
333,881,33966,Sweet Gum,,LR/lc,Ko'ma;Copalillo;Sweet Gum;Ocozote;Yaga-bizigui;Estoraque;Molá;Ingamo;Icob;Suchete;Copalme;Balsamo
334,905,33967,Kilimanjaro Mahogany,,NT,Brown Mahogany;Msau;Mutunguru;Nabulagala;Kilimanjaro Mahogany;Mukusu;Omukankoma;Omukumbo;Mboto
335,400,33969,Cannonball Tree,,LR/lc,Calabasse Colin;Bosch Kalabas;Mamey Hediondo;Coco De Mono;Mucurutu;Cannonball Tree;Castanha De Macaca;Haya Huma;Bala De Cañón;Granadillo;Arbol Santo
336,225,33974,,,EN,Pau-pernambuco;Orabutá;Pau-brasil;Brasileto;Ibirapitanga;Pau-rosado
337,827,33985,West Indian Walnut,,VU,Palo De Nuez;West Indian Walnut;Nogal;Walnut
338,402,33987,Mediterranean Hawthorn,,LC,Oriental Hawthorn;Μοσφιλιά;Crete Hawthorn;Mediterranian Medler;Mosfilia;Għanżalor;Anzalor;زعرور;Mediterranean Hawthorn;Azarole
339,1232,33991,Bur Oak,,LC,Bur Oak
340,1593,34004,Port Orford Cedar,,NT,Port-Orford Cedar;Lawson's Cypress;Ginger Pine;Oregon Cedar;Port Orford White-cedar;Port Orford Cypress;Port Orford Cedar
341,1621,34019,Santa Lucia Fir,,NT,Bristlecone Fir;Santa Lucia Fir
342,1708,34041,Pacific Yew,,NT,Canadian Yew;Pacific Yew
343,1650,34050,Sand Pine,,LC,Sand Pine;Florida Spruce Pine
344,1611,34051,Redwood,,EN,Coast Redwood;Redwood;California Redwood
345,1594,34056,Southern White Cedar,,LC,Southern White Cedar
346,1597,34082,Bentham's Cypress,,NT,Sabina;Ciprés;Cedro Blanco;Bentham's Cypress
347,1703,34084,Ocotillo de Llano,,LC,Cypress de Montaña;Cipresillo;Piño de Montaña;Pinillo;Ciprecillo Blanco;Kurus-té;Palo de Oro;Alfajillo;Ciprecillo Amarillo;Ocotillo de Llano
348,1624,34121,,,NT,
349,1628,34144,Tienshan Fir,,LC,Tienshan Fir
350,1632,34148,,,VU,
351,1700,34153,Huon Pine,,LC,Huon Pine
352,1633,34161,,,EN,Zada;Larice
353,1649,34184,Caribbean Pine,,EN,Caribbean Pine;Pitch Pine;Nicaragua Pine
354,1669,34191,,,EN,
355,1691,34201,,,LC,
356,1298,34282,,,VU,
357,381,34315,Broadleaf,,VU,Broadleaf
358,1580,34321,Fijian Kauri Pine,,EN,Kauri;Ndakua Makadre;Fijian Kauri Pine;Ndakua
359,823,34359,Nogal del Monte,,LR/nt,Nogal del Monte;Nogal Criollo;Nogal Silvestre;Nogal Criolla
360,37,34363,,,LR/lc,Lantupak;Bekak;Mokken;Merasam;Tasua-bailek;Langsat-langsat
361,36,34364,Pacific Maple,,DD,Katong-tiklop;Kato;Myauk-le-seik;Nyireh Batu;Che;Daeng-nam;Amoora;Tasua;Bengang;Malakamote;Pacific Maple
362,866,34420,,,LC,Machinmango;Jarana
363,645,34481,,,LR/lc,
364,234,34619,,,LR/lc,Baula
365,1194,34620,East Indian/Malabar Kino,,NT,East Indian/Malabar Kino
366,1029,34628,Raulí,,LC,Raulí
367,1011,34631,Quina Morada,,DD,Pau-de-bâlsamo;Cabreúva-amarela;Cabreúna;Bâlsamo;Caburé;Cabrué;Quina Morada;Pau-de-óleo-verdadei Ro;Incienso;Cabreúva-parda;Qu;Óleo-pardo;Ibirá-payé
368,200,34646,,,LR/nt,Kankabim;Apobéaou
369,1165,34647,,,LC,Aningeria;Mukangu;Osan;Samfena
370,1242,34682,,,VU,
371,331,34688,Demerara Greenheart,,DD,Sipiri;Bibiro;Demerara Greenheart;Kut;Ispingo Moena;Greenheart;Sipu;Kevatuk;Beeberoe;Cogwood
372,862,34702,,,LR/nt,
373,1392,34729,,,LR/lc,Mukinja
374,1678,34743,Monterey Pine,,EN,Insignis Pine;Pino Insigne;Radiata Pine;Cambria Pine;Monterey Pine
375,127,34746,,,LR/nt,
376,263,34747,,,VU,Sapucaia-de-apito;Jequitibá Vermello;Pau Carga;Pau-carga;Sapucaia De Apito;Jequitibá Branco;Jequitibá Rosa
377,302,34748,Hamelí,,LR/nt,Cuipo;Hamelí;Hameli
378,717,34839,,,VU,
379,864,34847,Chilean Sassafras,,LR/nt,Trihue;Chilean Laurel;Chilean Sassafras
380,1001,34851,,,LC,Wale;Kaudanu Loa;Kau Yalewa;Kaudamu;Male
381,1031,34852,Coigue,,LC,Coigüe;Coigue;Coihue
382,1256,34870,,,VU,
383,61,34891,,,LR/lc,
384,1314,35108,,,VU,Faifai
385,1509,35156,,,VU,
386,209,35269,,,EN,
387,224,35298,,,LR/nt,Rebenta Canralo;Canjerana;Pindaiborana;Canjerana Pindaiborana;Rebenta Cavalo;Canjarana
388,401,35437,Zapote De Mico,,LR/nt,Zapote De Mono;Paraíso;Zapote De Mico;Coco De Mono;Bala De Cañón
389,934,35603,Vaco,,VU,Vaco
390,1647,35759,,,NT,
391,515,36274,,,EN,Yang bu kae
392,1164,36472,,,VU,
393,1528,37086,Walking Lady,,EN,Walking Lady;Yax-nik;Fiddlewood
394,564,37156,,,LR/lc,
395,780,37187,,,VU,
396,773,37200,,,VU,
397,773,37201,,,VU,
398,1009,37324,,,VU,
399,939,37455,Candelillo,,VU,Redondo;Candelillo
400,173,37497,Abedul,,EN,Abedul
401,173,37498,Abedul,,EN,Abedul
402,1240,37500,Roble Albar,,LC,Roble Albar
403,1373,37545,,,CR,
404,548,37549,,,DD,Durian Ijau Laut;Durian Burung
405,169,37556,Virginia Round-leaf Birch,,CR,Virginia Round-leaf Birch
406,1459,37643,,,VU,
407,233,37649,,,LR/lc,
408,359,37687,,,VU,
409,1166,37721,,,LR/nt,
410,844,37726,,,VU,
411,844,37727,,,VU,
412,203,37814,Guaimaro,,LR/lc,Guaimaro;Burba;Tillo;Berba
413,1025,37848,,,LR/lc,
414,1000,37857,,,VU,
415,1003,37874,,,LR/nt,
416,1073,37896,,,VU,
417,427,37918,,,EN,
418,924,38017,,,EN,
419,1290,38033,,,VU,
420,657,38147,,,EN,
421,658,38149,,,EN,
422,659,38150,,,LR/nt,
423,683,38152,,,VU,
424,325,38161,,,VU,
425,956,38166,,,EN,
426,439,38224,,,LR/nt,
427,441,38244,,,EN,
428,442,38251,,,VU,
429,443,38255,,,EN,
430,445,38259,,,VU,
431,682,38264,,,LR/lc,
432,448,38277,,,LR/nt,
433,1421,38279,,,LR/lc,
434,753,38333,,,LR/lc,
435,498,38346,,,EN,
436,2,38366,,,VU,
437,1074,38387,,,LR/lc,
438,156,38448,,,VU,Manarano;Sikomba;Manara;Maroala
439,552,38531,,,VU,Lafa
440,553,38532,Manambe Palm,,VU,Manambe;Manambe Palm;Dimaka
441,867,38592,,,EN,
442,962,38605,,,EN,
443,1249,38672,,,CR,Lakamarefo
444,1250,38677,Majestic Palm,,VU,Majesty Palm;Majestic Palm
445,1288,38696,,,EN,Satranabe
446,973,38738,,,VU,
447,999,38739,,,EN,
448,784,38850,,,VU,
449,215,38908,,,EN,
450,1671,39068,Longleaf Pine,,EN,Georgia Pine;Longleaf Pine;Florida Pine
451,1595,39149,Japanese Cedar,,NT,Sugi;Japanese Cedar
452,1604,40954,Checker-bark Juniper,,CR,Alligator Juniper;Checker-bark Juniper
453,1177,172064,Sweet Cherry,,LC,Mazzard Cherry;Bird Cherry;Merisier;Cerisier des oiseaux;Gean;Wild Cherry;Cerezo;Sweet Cherry
454,942,172170,Crab Apple,,DD,European Crab Apple;Crab Apple;Pommier Sauvage
455,1586,42195,Bunya Pine,,LC,Bunya Pine
456,1587,42196,Cook's Pine,,LC,Pin colonnaire;Cook's Pine;New Caledonia Pine
457,1591,42202,Black Cypress-pine,,LC,Scrub Pine;Red Pine;Mountain Pine;Murray Pine;Red Cypress;Red Cypress-pine;Black Cypress-pine;Black Pine
458,1590,42206,White Cypress-pine,,LC,White Pine;White Cypress-pine;Cypress Pine;Western Cypress;Western Sand Cypress;Murray River Pine;Northern Cypress-pine;White Cypress Pine
459,1592,42210,Incense Cedar,,LC,Bastard Cedar;California Post Cedar;Incense Cedar;California Incense Cedar;White Cedar;Cedro Incienso
460,1594,42214,Atlantic White Cedar,,LC,Atlantic White Cedar;White Cypress;Atlantic White Cypress
461,1596,42215,Chinese Fir,,LC,Shan mu;Chinese Fir
462,1597,42221,Mexican Cypress,,LC,Cedro;Mexican Cypress;Cedar of Goa;Cedro Blanco del Deserto;Ciprés;Cedro Blanco
463,1598,42222,MacNab Cypress,,LC,Fragrant Cypress;Shasta Cypress;MacNab Cypress
464,1604,42231,Alligator Juniper,,LC,Táscate;Táscate Blanco;Alligator Juniper;Cedro Chino;Checkerbark Juniper
465,1605,42242,Western Juniper,,LC,Western Juniper
466,1606,42243,Prickly Juniper,,LC,Oxycèdre;Enebro de Bajas Rochas;Genévrier cade;Kade;Genévrier epineux;Prickly Juniper
467,1608,42257,Eastern Redcedar,,LC,Red Cedar;Cèdre rouge;Savin;Red Juniper;Eastern Redcedar;Pencil Cedar
468,1613,42261,Bald Cypress,,LC,Bald Cypress
469,1615,42262,Northern White Cedar,,LC,Northern White Cedar;Arbor-vitae;White Cedar;Cèdre blanc;Swamp Cedar;Eastern White-cedar;Thuier cèdre
470,1616,42263,Western Red-cedar,,LC,Giant Cedar;Western Red-cedar;Canoe Cedar;Pacific Red-cedar;Shinglewood;Giant Arbor-vitae
471,1702,42266,Celery-top Pine,,LC,Celery-top Pine
472,1618,42270,Silver Fir,,LC,Weisstanne;Sapin pectiné;Silver Fir
473,1619,42271,Pacific Silver Fir,,LC,Pacific Silver Fir;Cascade Fir;Lovley Fir
474,1620,42272,Balsam Fir,,LC,Canadian Fir;Sapin balsamier;Balsam Fir
475,1622,42276,White Fir,,LC,Colorado Fir;Low's Fir;White Fir;California White Fir
476,1623,42284,Grand Fir,,LC,Giant Fir;Lowland Fir;Grand Fir
477,1624,42285,Guatemalan Fir,,EN,Romerillo;Pashaque;Abeto de Guatemala;Guatemalan Fir;Pinabere
478,1625,42289,Subalpine Fir,,LC,Subalpine Fir;Alpine Fur
479,1626,42290,Red Fir,,LC,California Red Fir;Red Fir
480,1627,42296,Noble Fir,,LC,Noble Fir
481,1628,42299,Siberian Fir,,LC,пихта сибирская;Xian Bei Leng Shan;Siberian Fir;西伯利亚冷杉
482,1629,42300,Webb Fir,,NT,Bang;西藏冷杉;Paludar;Xizang Leng Shan;Chilrao;Webb Fir;Badar;Himalayan Fir
483,1630,42303,Atlas Cedar,,EN,Cèdre de l'Atlas;Atlas Cedar
484,1631,42304,Deodar Cedar,,LC,Xuesong;Himalayan Cedar;Deodar Cedar
485,1632,42305,Cedar of Lebanon,,VU,Lebanon Cedar;Cèdre du Liban;Cedar of Lebanon
486,1633,42309,European Larch,,LC,European Larch;Mélèze d'Europe;Zada;Europäische Lärche;Larice
487,1634,42310,Dahurian Larch,,LC,Listvennitsa daurkaya;Dahurian Larch;Gui-natsu;Luoye Song
488,1635,42312,Japanese Larch,,LC,Japanese Larch;Kara-Matsu
489,1636,42313,Tamarack,,LC,Tamarack;Eastern Larch;American Larch
490,1637,42315,Western Larch,,LC,Western Larch
491,1638,42317,Siberian Larch,,LC,Xinjian Luoye Song;Siberian Larch;Listvennista Sibirskaya
492,1639,42318,Norway Spruce,,LC,Jel Europeiskaya;Norway Spruce;Gemeine Fichte;Epicéa commun
493,1640,42322,Engelmann Spruce,,LC,Engelmann Spruce
494,1641,42323,White Spruce,,LC,White Spruce;Canadian Spruce
495,1642,42325,Yezo Spruce,,LC,Ezo-matsu;Jel Ajankaja;Yezo Spruce;Yeddo Spruce;Ga-mun-bi-na-mu
496,1643,42328,Black Spruce,,LC,Bog Spruce;Black Spruce;Swamp Spruce
497,1645,42335,Red Spruce,,LC,Red Spruce;Epinette rouge;Eastern Spruce
498,1646,42337,Sitka Spruce,,LC,Sitka Spruce
499,1647,42344,Mexican White Pine,,LC,Pino Gretado;Ayacahuite;Pinabete;Ocote Gretado;Mexican White Pine;Acalote
500,1648,42346,Jack Pine,,LC,Black Pine;Hudson Bay Pine;Jack Pine
501,1649,42348,Caribbean Pine,,LC,Pitch Pine;Pino Macho;Caribbean Pine;Pino de la Costa;Nicaragua Pine
502,1651,42351,Lodgepole Pine,,LC,Bolander Beach Pine;Bolander's Beach Pine;Lodgepole Pine;Shore Pine;Tamarack Pine
503,1652,42356,Michoacan Pine,,LC,Pino Real;Pino Blanco;Pino Lacio;Ocote Macho;Ocote Gretado;Pino Escobetón;Michoacan Pine
504,1653,42359,Shortleaf Pine,,LC,Shortleaf Pine
505,1654,42360,Pinyon Pine,,LC,Colorado Pinyon;Two-needle Pinyon Pine;Pinyon Pine
506,1655,42361,Slash Pine,,LC,Slash Pine
507,1657,42363,Limber Pine,,LC,Limber Pine;Rocky Mountain White Pine
508,1658,42364,Spruce Pine,,LC,Spruce Pine;Poor Pine
509,1659,42368,Heldreich's Pine,,LC,Pino loricato;Heldreich's Pine;Bosnian Pine
510,1660,42371,Jeffrey Pine,,LC,Jeffrey's Pine;Jeffrey Pine
511,1661,42372,Khasia Pine,,LC,Tinyu;Benguet Pine;Khasia Pine;Khasi Pine;Luzon Pine
512,1663,42373,Korean Pine,,LC,Channamu;Hong song;Korean Pine
513,1664,42374,Sugar Pine,,LC,Sugar Pine
514,1666,42382,Montezuma Pine,,LC,Ocote Blanco;Pino Real;Montezuma Pine;Pino de Montezuma;Rough-branched Mexican Pine
515,1667,42383,Western White Pine,,NT,Western White Pine
516,1668,42385,Dwarf Mountain Pine,,LC,Mugo;Kosodrzewina;Dwarf Mountain Pine;Mountain Pine;Pin de montagne;Bergkiefer;Mugo Pine
517,1669,42386,Austrian Pine,,LC,Karaçam;Pin noir;Schwarzföhre;Austrian Pine;Pino Nigro;Corsican Pine;Black Pine
518,1670,42387,Egg-cone Pine,,LC,Pino Trompillo;Pino Blanco;Pino Chino;Pino Albellano;Pino Colorado;Egg-cone Pine;Ocote Chino;Ocote
519,1672,42389,Jelecote Pine,,LC,Ocote;Weeping Pine;Mexican Weeping Pine;Spreading-leaved Pine;Jelecote Pine;Pino Triste
520,1673,42390,Maritime Pine,,LC,Pino Marittimo;Pinheiro-bravo;Maritime Pine;Pinastro;Pin maritime;Pinastre;Pino Resinero;Pin des landes;Pino Gallego
521,1674,42401,Ponderosa Pine,,LC,Western Yellow Pine;Ponderosa Pine
522,1675,42403,Pringle's Pine,,LC,Pino Piña Negra;Pringle's Pine;Ocote de Virgen;Pino Rojo;Ocote;Escobetón
523,1676,42404,Smooth-bark Mexican Pine,,LC,Pino Blanco;Pino Chalmaite;Pino Lacio;Smooth-bark Mexican Pine;Pino Liso;False Weymouth Pine
524,1677,42406,Table Mountain Pine,,LC,Hickory Pine;Table Mountain Pine;Prickly Pine
525,1678,42408,Monterey Pine,,EN,Pino Insigne;Cedros Island Pine;Radiata Pine;Insignis Pine;Guadalupe Island Pine;Monterey Pine
526,1679,42410,Red Pine,,LC,Red Pine;Norway Pine;Pin rouge
527,1680,42411,Pitch Pine,,LC,Hard Pine;Pin rigide;Pitch Pine
528,1681,42414,Pond Pine,,LC,Pond Pine;Marsh Pine;Pocosin Pine
529,1682,42417,Eastern White Pine,,LC,Weymouth Pine;Pin blanc;Eastern White Pine
530,1683,42418,Scots Pine,,LC,Furu;Gemeine Kiefer;Scots Pine;Sosna Lesnaya;Tall;Sosna Zwyczajna;Sosna Obiknovennaya;Pin sylvestre
531,1684,42420,Loblolly Pine,,LC,Loblolly Pine;Southern Pine
532,1685,42421,Taiwan Black Pine,,LC,黄山松;Formosa Pine;Taiwan Black Pine;Tai Wan Song
533,1686,42426,Virginia Pine,,LC,Scrub Pine;Virginia Pine
534,1687,42427,Himalayan White Pine,,LC,Himalayan Pine;Blue Pine;Kail;Bhutan Pine;qiao song;乔松;Lamshing;Himalayan White Pine
535,1688,42429,Douglas-fir,,LC,Douglas Fir;Douglas-fir;Oregon Pine
536,1689,42431,Eastern Hemlock,,NT,Canada Hemlock;Eastern Hemlock
537,1690,42435,Western Hemlock,,LC,Pacific Hemlock;Western Hemlock
538,1691,42436,Mountain Hemlock,,LC,Mountain Hemlock
539,1692,42438,Bastard Yellowwood,,LC,Outeniqua Yellowwood;Bastard Yellowwood;Outeniekwageelhout;Umgeya
540,1693,42439,East African Yellowwood,,LC,East African Yellowwood
541,1695,42445,,,LC,
542,1696,42447,,,LC,
543,1697,42448,Red Pine,,LC,Rimu;Red Pine
544,1698,42449,,,LC,
545,1699,42471,,,LC,Yaka
546,1701,42484,,,LC,
547,1704,42499,,,LC,Kuasi
548,1704,42521,Brown Pine,,LC,Brown Pine
549,1705,42529,,,NT,
550,1706,42538,Miro,,LC,Miro;Brown Pine
551,1251,42543,,,LC,Dakua Salusalu
552,1707,42546,Common Yew,,LC,European Yew;Eibe;Common Yew;Tis yagodnyi;If;If commun
553,1709,42549,Japanese Yew,,LC,Ju-mok;Araragi;Ichi-i;Japanese Yew;Dong bei dou shan
554,1712,46171879,East Himalayan Yew,,EN,East Himalayan Yew;Xu mi hong dou shan;Ximalaya Hongdoushan;Thuner;Himalayan Yew
555,1396,49196213,African Tulip Tree,,LC,Fountain Tree;Nandi Flame;African Tulip Tree
556,697,45879,,,VU,
557,133,46484,,,EN,Manoko Mavo;Manokofotsy;Tsararavina
558,310,61782438,,,LC,Kapok
559,1566,178805,,,LC,
560,361,178806,Silver-leaved Buttonwood,,LC,Silver-leaved Buttonwood
561,328,178822,,,LC,
562,630,178842,,,LC,
563,1565,178845,,,LC,
564,1253,178851,Red Mangrove,,LC,Mangle Colorado;Red Mangrove;American Mangrove;Tapche
565,740,178852,,,LC,
566,1649,20364362,Bahamas Pine,,VU,Caribbean Pine;Bahamas Pine;Caicos Pine
567,1649,20364366,,,LC,
568,1624,46186032,Guatemalan Fir,,EN,Pinabere;Romerillo;Pashaque;Guatemalan Fir
569,741,61786072,,,LC,Rosarosa
570,1583,16435323,Queensland Kauri,,LC,Queensland Kauri
571,1583,16435549,,,VU,
572,746,61786470,Coast Cottonwood,,LC,Coast Cottonwood
573,1032,61918019,Silver Beech,,LC,Silver Beech
574,1205,61786964,,,LC,
575,1033,61918092,Roblé,,LC,Roblé
576,1034,61918143,Lenga Beech,,LC,Lenga Beech
577,662,61918430,White Ash,,CR,White Ash
578,664,61918519,Oregon Ash,,NT,Oregon Ash
579,666,61918683,Black Ash,,CR,Black Ash
580,667,61918784,Manna Ash,,LC,Manna Ash
581,1404,61787857,Yellow Sterculia,,VU,Yellow Sterculia
582,668,61918934,Green Ash,,CR,Green Ash
583,669,61919022,Pumpkin Ash,,CR,Pumpkin Ash
584,1408,61788018,,,DD,Waciwaci;wathiwathi
585,670,61919112,Blue Ash,,CR,Blue Ash
586,1476,61788175,Portia Tree,,LC,Portia Tree
587,1479,61788230,Basswood,,LC,Basswood
588,1426,61919333,Common lilac,,LC,Common lilac;πασχαλιά;Ljuljak;Jorgovan
589,1583,16437966,Queensland Kauri Pine,,LC,Queensland Kauri Pine;Smooth-barked Kauri
590,1632,46191675,Cedar of Lebanon,,VU,Lebanon Cedar;Cèdre du Liban;Cedar of Lebanon
591,1581,185863,Moore's Kauri,,VU,Kaori rouge;Moore's Kauri;Kaori Blanc
592,556,50126590,White Cedar,,EN,White Cedar
593,386,63521,Hazel,,LC,European hazel;Cobnut;Hazel;Avelline
594,1242,63532,European Oak,,LC,Chêne Pédonculé;Skogsek;English Oak;Pedunculate Oak;Dub Cereščatyj;Pelarek;European Oak
595,258,61794008,,,LC,
596,151,61532862,,,EN,
597,1588,191446,,,LC,
598,1588,191447,,,LC,
599,1628,191574,Siberian Fir,,LC,пихта сибирская;Xian Bei Leng Shan;Siberian Fir;西伯利亚冷杉
600,1602,191576,Himalayan Cypress,,LC,Gubraî;Himalayan Cypress;Gulla;xi zang bai mu
601,1634,191613,Dahurian Larch,,LC,Dahurian Larch
602,1634,191614,,,LC,
603,1634,191615,Olga Bay Larch,,NT,Olga Bay Larch
604,1634,191616,Prince Rupprecht's Larch,,LC,Prince Rupprecht's Larch
605,1642,191628,Hondo Spruce,,LC,Hondo Spruce;Tohi
606,1642,191629,,,LC,
607,1685,191647,,,NT,
608,1685,191648,Taiwan Black Pine,,LC,Taiwan Black Pine;Formosa Pine;黄山松;Tai Wan Song
609,1687,191649,,,LC,
610,1687,191650,Himalayan White Pine,,LC,Blue Pine;Kail;Bhutan Pine;qiao song;乔松;Lamshing;Himalayan White Pine
611,1709,191657,,,LC,
612,1709,191658,Dwarf Yew,,DD,Dwarf Yew
613,330,61795772,,,LC,Lisi-Lisi;Sentol kera;Jerai
614,559,61795928,,,LC,
615,1059,194542,Aliso blanco,,LC,Gamuso;Moraroja;Aliso colorado;Caniilo de venada;Tatiscoba;Aliso blanco;Meseal;Guapaque;Duraznillo
616,170,194578,Monarch Birch,,LC,Udai-Kamba;Monarch Birch;Saihada-Kamba
617,176,194585,,,LC,Ono-Ore-Kamba;Sai Hei Hua;Bakdalnamu
618,64,194598,Red alder,,LC,Red alder;Western alder;Aulne rouge;Oregon alder
619,15,194704,The Painted Maple,,LC,The Painted Maple
620,10,193523,Field Maple,,LC,Field Maple
621,432,62496,Burma Blackwood,,NT,Getdam;Ka Bo;Mai Ket Dam;Ket Koo Fai;Burma Blackwood;Yindaik;Kamphere;Nang Noune;Mai Kam Phee
622,173,62535,Silver Birch,,LC,Vårtbjörk;European White Birch;Common Birch;Bouleau Pleureur;Abedul;chui zhi hua;Weeping Birch;Jajaknamu;Silver Birch
623,1240,62539,Sessile Oak,,LC,Sessile Oak
624,381,62558,Geiger Tree,,LC,Geiger Tree;Broadleaf
625,934,62599,Vaco,,NT,Vaco
626,11,193830,Bigleaf Maple,,LC,Oregon Maple;Bigleaf Maple
627,13,193845,Japanese Maple,,LC,鸡爪枫 (Ji Zhua Feng);Japanese Maple
628,14,193849,Striped Maple,,LC,Moosewood;Striped Maple
629,17,193856,Sycamore,,LC,Sycamore
630,18,193860,Red Maple,,LC,Red Maple
631,19,193862,Silver Maple,,LC,Silver Maple
632,20,193863,Sugar Maple,,LC,Sugar Maple
633,931,193896,Cucumber Magnolia,,LC,Yellow Cucumbertree;Cucumber Magnolia;Mountain Magnolia
634,1392,62861,Whitebeam,,LC,Vitoxel;Mukinja;Whitebeam;Sølvasal
635,932,193948,Southern Magnolia,,LC,Southern Magnolia;Big-laurel;Bull-bay;Evergreen Magnolia
636,933,193996,,,DD,
637,934,194007,,,VU,
638,12,62940,Boxelder,,LC,Boxelder
639,936,194014,,,DD,
640,882,194015,Yellow poplar,,LC,Yellow poplar;Tulip tree
641,937,194018,Sweet Bay,,LC,White Bay;Sweet Magnolia;Swamp Bay;Sweet Bay;Swamp Laurel
642,938,194019,,,DD,
643,1220,194051,White Oak,,LC,White Oak
644,1222,194069,Swamp White Oak,,LC,Swamp White Oak
645,1224,194076,Canyon Oak,,LC,Goldcup Oak;Maul Oak;Canyon Oak;Canyon Live Oak
646,1225,194079,Scarlet Oak,,LC,Scarlet Oak
647,97,63011,,,VU,Mersawa;Palosapis
648,1356,63038,Light Red Meranti,,LC,Kawang;Melantai;Chan Hoi;Light Red Meranti
649,1227,194127,Southern Red Oak,,LC,Southern Red Oak;Spanish Oak
650,1228,194133,Oregon White Oak,,LC,Brewer Oak;Post Oak;Garry Oak;Oregon White Oak
651,1231,194190,Overcup Oak,,LC,Overcup Oak
652,1233,194196,Swamp Chestnut Oak,,LC,Swamp Chestnut Oak
653,1236,194201,Chestnut Oak,,LC,Chestnut Oak
654,1237,194202,Chinkapin Oak,,LC,Chinkapin Oak;Yellow Chestnut Oak
655,1239,194215,Pin Oak,,LC,Pin Oak
656,1243,194226,Northern Red Oak,,LC,Northern Red Oak
657,1244,194232,Shumard Oak,,LC,Shumard Oak
658,1245,194236,Post Oak,,LC,Iron Oak;Post Oak
659,1246,194244,Black Oak,,LC,Black Oak
660,1247,194245,Southern Live Oak,,LC,Southern Live Oak;Virginia Live Oak
661,167,194255,Yellow birch,,LC,Swamp birch;Gray birch;Merisier;Bouleau;Yellow birch;Silver birch
662,168,194256,Himalayan birch,,LC,Xi hua;Himalayan birch;लेक पैयु Lekh pain;Bhurjapatra;Kath-bhuj;Indian Birch;Saur
663,386,194272,Mediterranean Hazel,,DD,Romische Hasel;Pontische Hasel;Oresnik Pontijskij;Mediterranean Hazel;Turkish Hazel
664,265,194274,Common Hornbeam,,LC,Common Hornbeam;Hornbeam;Caucasian Hornbeam
665,266,194277,American Hornbeam,,LC,"mora blanca;Blue beech;tzutcamay;capillero;tzaráracua-ucua,;caxin;palo blanco;palo borracho;dsuram cura;American Hornbeam;palo liso;oreja de ratón;lechillo;palo de barranca;mora de la sierra;palo barranco;c’ut bah té;Hornbeam;Musclewood;Alisillo;pepinque;pipinque;moralillo"
666,706,61798160,,,LC,
667,61,194461,,,DD,
668,61,194462,,,DD,
669,62,194472,Grey alder,,LC,Grey alder
670,169,194483,Sweet birch,,LC,Sweet birch;Round-leaf Birch;Black birch;Cherry birch
671,172,194502,Paper birch,,LC,Bouleau á papier;Canoe birch;White birch;Paper birch;Silver birch;Bouleau blanc
672,175,194521,Downy Birch,,LC,Brizovina;Glasbjörk;Downy Birch;Briza;Bouleau pubescent;White Birch;Puhasta breza;Mountain Birch;Cretna breza;Brown Birch;Moor-Birke
673,175,194523,,,DD,
674,1059,194540,Eastern hop hornbeam,,LC,bois de fer;guapaque;guichin;tzutujté;petatillo;Ironwood;Eastern hop hornbeam;mora roja;pepinque;pipinque;palo blanco moro;Ostryer de Virdinie;mora
675,1059,194541,American hop-hornbeam,,LC,Eastern hop-hornbeam;Hop-hornbeam;Bois de fer;Ironwood;American hop-hornbeam;Leverwood;Ostryer de Virginie
676,171,194551,River birch,,LC,Black birch;Red birch;River birch;Water birch
677,831,63495,Common Walnut,,LC,Common Walnut
678,61,63517,Common Alder,,LC,European Alder;Common Alder;klibbal;ontano nero;swartels;Black alder
679,501,63524,,,LC,
680,1159,63530,Black Poplar,,DD,Black Poplar
681,1673,63554,,,EN,
682,173,194625,Sichuan Birch,,DD,Sichuan Birch
683,174,194635,Gray birch,,LC,Wire birch;Bouleau a feuilles de peuplier;Gray birch;White birch;Bouleau gris;Bouleau rouge;Fire birch;Old field birch
684,63,194649,Nepal Black Cedar,,LC,Utees;Lal-amiri;Otish;Ust;ni po er qi mu;Nepal Black Cedar;Utis;उतिस Utis
685,387,194668,Turkish Hazel,,LC,Turkish Hazel
686,173,194831,European Silver Birch,,LC,European Silver Birch
687,175,194832,Litwinow's Birch,,DD,Litwinow's Birch
688,1655,18153818,,,NT,
689,1668,18153856,,,EN,
690,913,61886731,Old Fustic,,LC,Old Fustic
691,1578,202905,,,EN,
692,1579,202906,Amboina Pitch Tree,,VU,Amboina Pitch Tree
693,27,202914,Horse Chestnut,,VU,Castanheiro da Índia;Horse Chestnut
694,114,202930,Strawberry Tree,,LC,Strawberry Tree;Medronheiro
695,1480,203360,Small-leaved Lime,,LC,Tília de folhas pequenas;Small-leaved Lime
696,1482,203361,Large-leaved Lime,,LC,Large-leaved Lime;Tília de folhas grandes
697,404,203425,Midland Hawthorn,,LC,Midland Hawthorn
698,405,203426,Hawthorn,,LC,Hawthorn;English Hawthorn;Biancospino;Espino Albar;Trubbhagtorn
699,1265,203465,White Willow,,LC,White Willow;Salgueiro branco;صفصاف أبيض;Vimeiro branco
700,1272,203471,Purple Willow,,LC,Purple Willow
701,87,60761659,Cabbage Tree,,LC,Cabbage Tree;Angelin
702,1505,19218731,Field Elm,,DD,Field Elm
703,1604,16335916,,,LC,
704,1604,16336230,,,LC,
705,1212,173010,Pear,,LC,Pera;Poirier;Poirier Sauvage;Pear;Peral;Wild Pear
706,54,18435618,Candlenut Tree,,LC,Candlenut Tree
707,202,61956569,,,LC,
708,1268,19620468,Grey willow,,LC,Grey willow
709,279,44393459,Fishtail Palm,,LC,Wine Palm;Kitul;Toddy Palm;Fishtail Palm
710,1252,61957125,Common Buckthorn,,LC,Common Buckthorn;European buckthorn
711,1393,61957558,Rowan,,LC,Mountain ash;Rogn;rogn;Rowan
712,1394,61957574,Swedish Whitebeam,,LC,Oxel;Swedish Whitebeam;Svensk asal
713,1395,61957590,Wild Service Tree,,LC,Wild Service Tree
714,1605,16345010,Sierra Juniper,,LC,Sierra Juniper
715,1605,16345037,Western Juniper,,LC,Western Juniper
716,1597,19754436,Mexican Cypress,,LC,Cedro;Mexican Cypress;Cedar of Goa;Cedro Blanco del Deserto;Ciprés;Cedro Blanco
717,1158,61959850,,,LC,
718,1160,61959941,Eurasian Aspen,,LC,Eurasian Aspen
719,1271,61960325,Black Willow,,LC,Sauz Willow;Black Willow;Swamp willow;Dudley Willow;Goodding
720,1606,16347367,Prickly Juniper,,LC,Prickly Juniper
721,1274,61960656,Common Osier Willow,,LC,Osier;Common Osier Willow
722,1606,16348693,,,LC,
723,1606,16348745,,,LC,
724,1606,16348802,,,NT,
725,937,68910770,,,CR,
726,1068,61965214,,,DD,Bau
727,1072,61965446,,,LC,Sathau;Sacau
728,1257,19891648,Black Locust,,LC,Black Locust;False Acacia
729,4,19891713,Koa,,LC,Koa;Gray Koa
730,329,19891776,,,LC,
731,914,19891828,,,LC,
732,1574,19891833,,,LC,Orelha de Negro;Pau Santo
733,789,19891869,,,LC,
734,1,19891902,Ear-leaf Acacia,,LC,Ear-leaf Acacia
735,1467,19891947,,,LC,
736,152,19891986,Camwood,,LC,Bois rouge;Camwood
737,57,19892007,,,LC,
738,362,19892010,,,LC,
739,579,19892027,,,LC,
740,190,19892051,,,LC,
741,1414,19892344,,,LC,
742,41,19892474,Flat-crown Albizia,,LC,West African Albizia;Flat-crown Albizia
743,910,19892527,,,LC,
744,1097,19892546,,,LC,
745,1502,61966807,Wych Elm,,DD,Wych Elm
746,1057,19892728,,,LC,
747,1437,19892733,,,LC,
748,812,19892774,,,LC,
749,1501,61966946,Cedar Elm,,LC,olmo;Red Elm;Cedar Elm;Basket Elm;Southern Rock Elm
750,450,19892887,,,LC,
751,1504,61967009,European White Elm,,DD,European White Elm
752,1608,16356397,,,LC,
753,1608,16356412,Southern Red-cedar,,LC,Coast Juniper;Southern Red-cedar;Sand Cedar;Coastal Red-cedar;Red-cedar
754,1657,46509530,Southwestern White Pine,,NT,Southwestern White Pine
755,1229,61982990,California Black Oak,,LC,Kellogg Oak;California Black Oak
756,1230,61983021,Valley Oak,,NT,California White Oak;Valley Oak
757,841,61986013,Sausage Tree,,LC,Sausage Tree
758,314,61987968,Sugarberry,,LC,Sugarberry
759,1620,46521861,,,LC,
760,1620,46521889,,,DD,
761,1094,61988657,,,LC,Mobola
762,1095,61988748,,,LC,
763,237,61988843,,,LC,Damanu
