4401.10.00.00
4401.21.00.00
4401.22.00.00
4401.31.00.00
4401.39.20.00
4401.39.40.10
4401.39.40.20
4401.39.40.90
4402.10.00.00
4402.90.00.00
4403.10.00.20
4403.10.00.40
4403.10.00.50
4403.10.00.60
4403.20.00.04
4403.20.00.12
4403.20.00.15
4403.20.00.16
4403.20.00.20
4403.20.00.30
4403.20.00.35
4403.20.00.40
4403.20.00.42
4403.20.00.45
4403.20.00.50
4403.20.00.52
4403.20.00.55
4403.20.00.57
4403.20.00.63
4403.20.00.65
4403.49.00.00
4403.91.00.20
4403.91.00.40
4403.92.00.00
4403.99.00.22
4403.99.00.24
4403.99.00.26
4403.99.00.27
4403.99.00.29
4403.99.00.30
4403.99.00.40
4403.99.00.50
4403.99.00.55
4403.99.00.60
4403.99.00.67
4403.99.00.70
4403.99.00.75
4403.99.00.91
4404.10.00.40
4404.10.00.80
4404.10.00.90
4404.20.00.40
4404.20.00.80
4404.20.00.90
4405.00.00.00
4406.10.00.00
4406.90.00.00
4407.10.01.01
4407.10.01.02
4407.10.01.15
4407.10.01.16
4407.10.01.17
4407.10.01.18
4407.10.01.19
4407.10.01.20
4407.10.01.42
4407.10.01.43
4407.10.01.44
4407.10.01.45
4407.10.01.46
4407.10.01.47
4407.10.01.48
4407.10.01.49
4407.10.01.52
4407.10.01.53
4407.10.01.54
4407.10.01.55
4407.10.01.56
4407.10.01.57
4407.10.01.58
4407.10.01.59
4407.10.01.64
4407.10.01.65
4407.10.01.66
4407.10.01.67
4407.10.01.68
4407.10.01.69
4407.10.01.74
4407.10.01.75
4407.10.01.76
4407.10.01.77
4407.10.01.83
4407.10.01.92
4407.10.01.93
4407.21.00.00
4407.22.00.06
4407.22.00.91
4407.25.00.00
4407.27.00.00
4407.28.00.00
4407.29.01.06
4407.29.01.11
4407.29.01.16
4407.29.01.21
4407.29.01.31
4407.29.01.40
4407.29.01.60
4407.29.01.80
4407.91.00.22
4407.91.00.63
4407.92.00.00
4407.93.00.10
4407.93.00.20
4407.94.00.00
4407.95.00.00
4407.99.01.11
4407.99.01.13
4407.99.01.19
4407.99.01.42
4407.99.01.61
4407.99.01.63
4407.99.01.72
4407.99.01.79
4407.99.01.85
4407.99.01.93
4408.10.01.25
4408.10.01.45
4408.31.01.00
4408.39.01.10
4408.39.01.90
4408.90.01.05
4408.90.01.10
4408.90.01.15
4408.90.01.21
4408.90.01.31
4408.90.01.37
4408.90.01.45
4408.90.01.51
4408.90.01.56
4408.90.01.61
4408.90.01.66
4408.90.01.71
4408.90.01.76
4408.90.01.81
4408.90.01.87
4408.90.01.95
4409.10.05.00
4409.10.10.20
4409.10.10.40
4409.10.10.60
4409.10.10.80
4409.10.20.00
4409.10.40.10
4409.10.40.90
4409.10.45.00
4409.10.50.00
4409.10.60.00
4409.10.65.00
4409.10.90.20
4409.10.90.40
4409.21.05.00
4409.21.90.00
4409.29.05.15
4409.29.05.25
4409.29.05.35
4409.29.05.45
4409.29.05.55
4409.29.05.65
4409.29.10.00
4409.29.25.30
4409.29.25.50
4409.29.25.60
4409.29.40.00
4409.29.50.00
4409.29.60.00
4409.29.65.00
4409.29.90.00
4410.11.00.10
4410.11.00.20
4410.11.00.30
4410.11.00.60
4410.12.00.10
4410.12.00.20
4410.19.00.10
4410.19.00.20
4410.19.00.30
4410.19.00.60
4410.90.00.00
4411.12.10.00
4411.12.20.00
4411.12.30.00
4411.12.60.00
4411.12.90.10
4411.12.90.90
4411.13.10.00
4411.13.20.00
4411.13.30.00
4411.13.60.00
4411.13.90.10
4411.13.90.90
4411.14.10.00
4411.14.20.00
4411.14.30.00
4411.14.60.00
4411.14.90.10
4411.14.90.90
4411.92.10.00
4411.92.20.00
4411.92.30.00
4411.92.40.00
4411.93.10.00
4411.93.20.00
4411.93.30.00
4411.93.60.00
4411.93.90.10
4411.93.90.90
4411.94.00.10
4411.94.00.20
4411.94.00.40
4411.94.00.50
4411.94.00.60
4411.94.00.70
4411.94.00.80
4412.10.05.00
4412.10.90.00
4412.31.05.20
4412.31.05.40
4412.31.05.60
4412.31.25.10
4412.31.25.20
4412.31.40.40
4412.31.40.50
4412.31.40.60
4412.31.40.75
4412.31.40.80
4412.31.51.25
4412.31.51.65
4412.31.51.75
4412.31.60.00
4412.31.91.00
4412.32.05.20
4412.32.05.40
4412.32.05.65
4412.32.05.70
4412.32.25.10
4412.32.25.25
4412.32.25.30
4412.32.31.25
4412.32.31.35
4412.32.31.55
4412.32.31.65
4412.32.31.75
4412.32.31.85
4412.32.56.00
4412.39.10.00
4412.39.30.00
4412.39.40.11
4412.39.40.12
4412.39.40.19
4412.39.40.31
4412.39.40.32
4412.39.40.39
4412.39.40.52
4412.39.40.59
4412.39.40.61
4412.39.40.62
4412.39.40.69
4412.39.50.10
4412.39.50.30
4412.39.50.50
4412.94.10.30
4412.94.10.50
4412.94.31.05
4412.94.31.21
4412.94.31.60
4412.94.31.71
4412.94.41.00
4412.94.51.00
4412.94.70.00
4412.94.80.00
4412.94.90.00
4412.94.95.00
4412.99.06.00
4412.99.10.20
4412.99.10.30
4412.99.10.40
4412.99.31.10
4412.99.31.20
4412.99.31.30
4412.99.31.40
4412.99.31.50
4412.99.31.60
4412.99.31.70
4412.99.41.00
4412.99.51.05
4412.99.51.15
4412.99.57.10
4412.99.60.00
4412.99.80.00
4412.99.90.00
4412.99.95.00
4413.00.00.00
4414.00.00.00
4415.10.30.00
4415.10.60.00
4415.10.90.00
4415.20.40.00
4415.20.80.00
4416.00.30.10
4416.00.30.20
4416.00.30.30
4416.00.60.10
4416.00.60.20
4416.00.60.30
4416.00.60.40
4416.00.90.20
4416.00.90.40
4417.00.20.00
4417.00.40.00
4417.00.60.00
4417.00.80.10
4417.00.80.90
4418.10.00.00
4418.20.40.00
4418.20.80.30
4418.20.80.60
4418.40.00.00
4418.50.00.10
4418.50.00.30
4418.50.00.50
4418.60.00.00
4418.71.10.00
4418.71.20.00
4418.71.90.00
4418.72.20.00
4418.72.91.00
4418.72.95.00
4418.79.00.00
4418.90.25.00
4418.90.46.05
4418.90.46.10
4418.90.46.20
4418.90.46.40
4418.90.46.50
4418.90.46.95
4419.00.40.00
4419.00.80.00
4420.10.00.00
4420.90.20.00
4420.90.45.00
4420.90.65.00
4420.90.80.00
4421.10.00.00
4421.90.10.00
4421.90.15.00
4421.90.20.00
4421.90.30.00
4421.90.40.00
4421.90.50.00
4421.90.60.00
4421.90.70.20
4421.90.70.40
4421.90.80.24
4421.90.80.27
4421.90.80.30
4421.90.80.33
4421.90.85.00
4421.90.88.00
4421.90.93.00
4421.90.94.00
4421.90.97.20
4421.90.97.30
4421.90.97.70
4421.90.97.80
9401.61.20.10
9401.61.20.30
9401.61.40.01
9401.61.40.11
9401.61.40.31
9401.61.60.01
9401.61.60.05
9401.61.60.11
9401.61.60.31
9401.69.20.10
9401.69.20.30
9401.69.40.10
9401.69.40.30
9401.69.60.01
9401.69.60.11
9401.69.60.31
9401.69.80.01
9401.69.80.05
9401.69.80.11
9401.69.80.31
9401.90.15.00
9401.90.25.40
9401.90.25.80
9401.90.35.10
9401.90.35.80
9401.90.40.10
9401.90.40.80
9401.90.50.05
9401.90.50.21
9401.90.50.81
9403.30.40.00
9403.30.80.00
9403.40.40.00
9403.40.60.00
9403.40.90.40
9403.40.90.60
9403.40.90.80
9403.50.40.00
9403.50.60.00
9403.50.90.41
9403.50.90.42
9403.50.90.45
9403.50.90.80
9403.60.40.00
9403.60.80.10
9403.60.80.40
9403.60.80.81
9403.90.10.40
9403.90.10.50
9403.90.10.85
9403.90.25.40
9403.90.25.80
9403.90.40.05
9403.90.40.10
9403.90.40.60
9403.90.50.05
9403.90.50.10
9403.90.50.80
9403.90.60.05
9403.90.60.10
9403.90.60.80
9403.90.70.05
9403.90.70.10
9403.90.70.80
9403.90.80.10
9403.90.80.15
9403.90.80.20
9403.90.80.41
9403.90.80.51
9403.90.80.61
9406.00.40.00
9406.00.80.10
9406.00.80.20
9406.00.80.30
9406.00.80.50
9406.00.80.90
